<?xml version="1.0" encoding="UTF-8" standalone="no"?>
<!-- Created with Inkscape (http://www.inkscape.org/) -->

<svg
   width="118.93021mm"
   height="107.22517mm"
   viewBox="0 0 118.93021 107.22516"
   version="1.1"
   id="svg1"
   xml:space="preserve"
   xmlns="http://www.w3.org/2000/svg"
   xmlns:svg="http://www.w3.org/2000/svg"><defs
     id="defs1" /><g
     id="layer4"
     style="display:inline"
     transform="translate(-78.746615,-73.775102)"><path
       id="rect5"
       style="display:inline;opacity:1;fill:#355f7f;fill-opacity:1;stroke:none;stroke-width:4.5992;stroke-dasharray:none;stroke-opacity:1"
       d="m 159.50959,-69.940477 c -0.50313,0.557911 -1.01617,1.166458 -1.49082,1.788748 -0.94958,1.244301 -1.74779,2.541104 -2.49501,4.049913 -0.74721,1.508804 -1.44335,3.2297 -1.91758,4.985728 -0.47423,1.756035 -0.72663,3.546902 -0.88697,5.349298 -0.16034,1.802397 -0.22832,3.616227 -0.35075,5.168501 -0.12242,1.552273 -0.29889,2.843068 -0.52858,3.974342 -0.22968,1.131274 -0.51284,2.102757 -0.65423,2.588547 -0.14138,0.485791 -0.14089,0.486024 -0.22108,0.747447 -0.0802,0.261423 -0.24067,0.784236 -0.38172,1.330413 -0.14105,0.546172 -0.26274,1.115481 -0.38445,1.684984 -0.64754,0.820246 -1.29483,1.640982 -1.82559,2.30992 -0.53076,0.668937 -0.9447,1.186359 -1.3166,1.805417 -0.37189,0.619064 -0.70192,1.339629 -1.09356,2.333908 -0.39164,0.99428 -0.84486,2.262355 -1.15507,3.966063 -0.31021,1.703707 -0.47703,3.842957 -0.48358,5.918497 -0.007,2.075535 0.14678,4.087278 0.38182,5.856724 0.23503,1.76944 0.55157,3.296362 0.86061,4.583476 0.30904,1.287113 0.61075,2.3345495 1.03548,3.6474998 0.42473,1.3129583 0.97234,2.891851 1.51495,4.3189844 0.54262,1.4271383 1.08034,2.70240724 1.82494,4.31937455 0.74458,1.61695935 1.69589,3.57517975 2.51647,5.30169515 0.82057,1.7265154 1.51008,3.2211364 2.20168,4.8648621 0.6916,1.643733 1.38549,3.436361 2.01072,5.080377 0.62523,1.64401 1.18198,3.139144 1.72353,4.585742 0.54156,1.446603 1.06774,2.844739 1.69675,4.405418 0.629,1.560678 1.3609,3.284046 2.06935,4.962272 0.70844,1.678219 1.39347,3.311563 2.03675,4.782456 0.64328,1.4709 1.24469,2.778991 1.8461,4.087537 -0.0446,-2.154041 -0.0889,-4.307801 -0.10242,-6.201754 -0.0135,-1.893953 0.004,-3.527756 0.0266,-4.688976 0.0229,-1.16122 0.0513,-1.849754 0.0646,-2.393177 0.0133,-0.543424 0.0113,-0.941688 0.0852,-1.235877 0.0739,-0.294197 0.22373,-0.484413 0.37308,-0.674546 0.14229,0.424672 0.28407,0.849447 0.52454,1.605825 0.24048,0.756382 0.57945,1.844192 0.86766,2.798361 0.2882,0.954169 0.52561,1.774608 1.11902,3.478797 0.5934,1.704183 1.54266,4.292046 2.46584,6.68934 0.92319,2.3973 1.82073,4.603875 2.44435,6.141749 0.62363,1.537881 0.97306,2.407172 1.23558,3.037606 0.26253,0.630433 0.43788,1.021998 0.60688,1.343693 0.169,0.321702 0.33188,0.573501 0.49476,0.825304 0.0766,-0.108412 0.15281,-0.216935 0.226,-0.364201 0.0732,-0.147265 0.14272,-0.333567 0.18889,-0.834497 0.0462,-0.500929 0.0692,-1.316752 0.10646,-2.321642 0.0373,-1.004883 0.0892,-2.198956 0.0721,-3.825101 -0.0171,-1.626145 -0.10334,-3.684283 -0.22142,-5.704595 -0.11805,-2.020298 -0.26814,-4.002679 -0.37544,-5.452697 -0.1073,-1.450018 -0.17194,-2.367706 -0.16567,-2.966883 0.006,-0.599186 0.0836,-0.879698 0.16075,-1.160325 1.37216,2.446583 2.74422,4.893305 4.06263,7.172472 1.3184,2.279166 2.58299,4.390828 3.88413,6.561955 1.30113,2.171126 2.63884,4.40171 3.82486,5.972551 1.186,1.570831 2.22021,2.481578 3.05629,3.183129 0.83606,0.701538 1.47392,1.193368 2.22137,1.597489 0.74744,0.40412 1.60449,0.720767 2.1708,0.843365 0.56632,0.122611 0.84201,0.05129 1.0663,-0.113097 0.22426,-0.16442 0.39713,-0.42208 0.53861,-0.727909 0.14148,-0.305827 0.25137,-0.659742 0.33214,-1.167616 0.0808,-0.507881 0.13257,-1.169346 0.14035,-1.796044 0.008,-0.626697 -0.0281,-1.218505 -0.0696,-1.692214 -0.0414,-0.473715 -0.0885,-0.829553 -0.13525,-1.185413 0.44108,0.21181 0.88217,0.423624 1.37845,0.595401 0.49628,0.171777 1.0477,0.303258 1.50982,0.352822 0.46211,0.04956 0.83501,0.0173 1.09346,-0.02487 0.25846,-0.04218 0.40222,-0.094 0.54517,-0.204321 0.14296,-0.110315 0.28539,-0.278839 0.39542,-0.452751 0.10995,-0.173977 0.18767,-0.35342 0.24919,-0.589613 0.0615,-0.23622 0.10601,-0.529644 0.11199,-1.042716 0.006,-0.513072 -0.0262,-1.245443 -0.13951,-1.959362 -0.11333,-0.713918 -0.30704,-1.408927 -0.59188,-2.115658 -0.28485,-0.706738 -0.66147,-1.425477 -1.30004,-2.508172 -0.63858,-1.082694 -1.53923,-2.529427 -2.75021,-4.430628 -1.211,-1.901208 -2.73167,-4.256534 -4.3492,-6.779497 -1.61753,-2.522962 -3.33199,-5.213813 -4.43185,-7.007385 -1.09985,-1.793558 -1.58528,-2.689717 -1.90309,-3.460086 -0.3178,-0.77037 -0.46771,-1.414679 -0.58049,-2.077773 -0.11279,-0.663096 -0.18874,-1.34542 -0.1901,-2.612983 -0.001,-1.267557 0.0717,-3.1203021 0.18333,-4.6168536 0.01,-0.1325549 0.0239,-0.2259015 0.0344,-0.3529411 0.12224,0.027986 0.24416,0.056155 0.37385,0.072198 0.70406,0.087084 1.52563,-2.044e-4 2.22921,-0.1869613 0.70358,-0.186756 1.28939,-0.4727284 1.84223,-0.6189441 0.55283,-0.1462158 1.07265,-0.1528038 1.66205,-0.1710874 0.58941,-0.018284 1.2479,-0.048442 2.65506,-0.1284817 1.40716,-0.080039 3.56271,-0.2098198 5.25539,-0.1821176 1.69268,0.027697 2.9226,0.2129585 3.99612,0.4085673 1.07353,0.1956152 1.99111,0.401424 2.63838,0.6913156 0.64727,0.2898852 1.02411,0.6636959 1.27687,1.0484872 0.25278,0.3847968 0.38155,0.7806689 0.31826,1.1305211 -0.0633,0.3498459 -0.31889,0.6539062 -0.58273,1.0369497 -0.26385,0.3830371 -0.53642,0.8450899 -0.80959,1.4793549 -0.27317,0.634258 -0.54656,1.440563 -0.59248,2.078424 -0.0459,0.637861 0.13563,1.107251 0.46168,1.524757 0.32607,0.417513 0.7964,0.78339 1.26661,1.149156 -0.11221,-0.209283 -0.22433,-0.418946 -0.30791,-0.748117 -0.0836,-0.329171 -0.13849,-0.777972 -0.0648,-1.277408 0.0737,-0.499436 0.27588,-1.049105 0.61389,-1.657739 0.33801,-0.608633 0.81182,-1.276219 1.35127,-2.1763539 0.53943,-0.9001426 1.14447,-2.0328196 1.74963,-3.1656289 0.86414,-0.6244741 1.72839,-1.2487175 2.78384,-2.0691353 1.05546,-0.8204169 2.30214,-1.8369813 3.24682,-2.2277503 0.94468,-0.3907618 1.58724,-0.1558204 1.9374,-0.084403 0.35017,0.071418 0.40779,-0.020827 0.27538,-0.2903912 -0.13242,-0.2695647 -0.45492,-0.7165441 -0.88078,-0.8436186 -0.42586,-0.12707528 -0.955,0.066073 -1.43158,0.2437249 -0.47658,0.1776576 -0.90061,0.3398306 -1.32462,0.5021325 0.55545,-0.6276532 1.11064,-1.25541402 1.63468,-2.04782587 0.52405,-0.79241261 1.01666,-1.74956893 1.55469,-2.20332103 0.53802,-0.4537586 1.1218,-0.4040153 1.63579,-0.3455882 0.51399,0.058434 0.95849,0.1258796 1.40304,0.1930675 -0.0577,-0.1484443 -0.1155,-0.2969475 -0.28957,-0.4210659 -0.17407,-0.1241193 -0.46438,-0.2244151 -0.74689,-0.3447414 -0.28251,-0.1203262 -0.55728,-0.2610083 -0.83186,-0.4018656 0.0604,0.018743 0.1207,0.037604 0.38079,0.017304 0.26009,-0.020299 0.7201,-0.080001 1.13778,-0.038286 0.41766,0.041708 0.7931,0.1848868 1.16869,0.3276464 -0.30643,-0.3077001 -0.61274,-0.6157196 -0.90871,-0.8400744 -0.29597,-0.2243483 -0.5815,-0.364902 -0.87026,-0.4718664 -0.28877,-0.1069709 -0.5806,-0.1804106 -0.819,-0.1752059 -0.2384,0.00521 -0.42322,0.088812 -0.71469,0.1868736 -0.29147,0.098056 -0.6897,0.2109393 -1.08786,0.3236941 -0.35138,-0.039293 -0.70281,-0.078624 -1.06407,0.021201 -0.36127,0.099825 -0.73228,0.3388441 -1.10342,0.5777823 -0.0612,0.3736871 -0.12231,0.7473421 -0.28213,1.1313289 -0.15983,0.3839795 -0.4182,0.7779212 -0.68945,1.2300547 -0.27123,0.45214001 -0.55525,0.96240509 -1.01587,1.5113405 -0.46061,0.54893541 -1.09804,1.1365643 -1.67825,1.5707587 -0.5802,0.4342016 -1.10325,0.7150772 -1.80004,0.9794896 -0.69678,0.2644196 -1.56727,0.512354 -2.40189,0.6323292 -0.83464,0.1199695 -1.63333,0.1119005 -3.48139,-0.067724 C 203.8195,3.0184842 200.92227,2.6672028 198.71231,2.4820873 196.50235,2.296971 194.9796,2.277994 193.95176,2.2368685 192.92392,2.1957425 192.39117,2.1327822 191.99939,1.9741174 191.6076,1.8154462 191.35715,1.561085 190.93536,1.0441929 c -0.29592,-0.36264324 -0.66993,-0.85154669 -0.92792,-1.28185887 0.6506,-0.0122116 1.36976,-0.12503416 2.0492,-0.40816709 0.90757,-0.37819464 1.7443,-1.05993454 2.63539,-1.87934764 0.8911,-0.819414 1.83631,-1.7760928 2.6806,-2.6246123 0.84429,-0.8485123 1.58756,-1.5888491 2.35977,-2.3757285 0.77221,-0.7868795 1.57318,-1.6206842 2.14401,-2.1796852 0.49353,-0.4833193 0.79974,-0.7390313 1.0542,-0.9138703 l 4e-5,6.0713255 c 0,0.3368497 0.2706,0.6082014 0.60745,0.6082014 l 0.63492,-1.612e-4 -1.9e-4,1.9095953 c 0,0.3522774 0.28366,0.6361537 0.63594,0.6361537 l 3.99009,1.085e-4 c 0.35228,0 0.63616,-0.2836616 0.63616,-0.6359391 l -2e-4,-1.9099274 0.67528,-2.43e-5 c 0.33685,0 0.6078,-0.2709332 0.6078,-0.6077828 l -10e-5,-7.5143236 c 0.1252,-0.01842 0.27519,-0.06832 0.3885,-0.07067 0.6628,-0.01371 1.10747,0.276073 1.40836,0.497049 0.30088,0.220976 0.45803,0.373193 0.56701,0.514904 0.10897,0.141711 0.1697,0.272697 0.23047,0.403861 -0.0752,-0.44832 -0.15043,-0.896846 -0.40531,-1.349956 -0.25488,-0.453105 -0.68922,-0.910892 -1.04193,-1.222366 -0.3527,-0.311474 -0.62342,-0.476356 -0.86633,-0.615631 -0.11087,-0.06357 -0.18445,-0.09452 -0.28084,-0.145259 l 3.1e-4,-0.851745 c 0.26635,-0.0063 0.50512,-0.02408 0.80251,-0.01739 -0.0485,-0.482909 -0.0972,-0.966205 -0.26947,-1.369543 -0.15847,-0.370988 -0.4087,-0.66387 -0.53324,-0.875125 l 2e-5,-0.452636 c 0.006,-0.0073 0.009,-0.01641 0.0144,-0.02364 0.30174,-0.09279 0.60368,-0.185382 0.93006,-0.186276 0.32638,-8.79e-4 0.67745,0.09014 1.19837,0.415284 0.52091,0.325159 1.21192,0.884159 1.90271,1.443434 -0.17752,-0.516214 -0.35529,-1.032032 -0.53294,-1.488079 -0.17765,-0.45604 -0.35532,-0.852067 -0.58196,-1.218225 -0.22666,-0.366156 -0.50203,-0.702726 -0.89172,-1.031565 -0.38968,-0.328838 -0.8938,-0.650183 -1.32403,-0.895805 -0.23458,-0.133925 -0.45961,-0.245724 -0.71504,-0.353764 l 1.1e-4,-8.241348 c 0,-0.336849 -0.271,-0.608533 -0.60785,-0.608533 l -0.58907,1.84e-4 -5.4e-4,-6.332812 -5.26179,9e-6 -1.9e-4,6.332876 -0.72001,2.69e-4 c -0.33685,0 -0.60781,0.270934 -0.60781,0.607783 l 1.2e-4,8.017578 c -0.0773,0.05675 -0.15601,0.109055 -0.23336,0.175207 -0.25226,0.215738 -0.53853,0.484005 -0.73607,0.755823 -0.19755,0.271818 -0.30668,0.547073 -0.29619,0.983269 0.0105,0.436203 0.14051,1.033674 0.24936,1.8984 0.10885,0.864726 0.19676,1.996901 0.0613,2.788942 -0.13543,0.792042 -0.49444,1.243855 -1.10863,1.939446 -0.61419,0.695591 -1.48372,1.634797 -2.14666,2.279321 -0.66294,0.6445308 -1.1189,0.9944141 -1.64091,1.2890872 -0.52201,0.2946658 -1.1099,0.5340443 -1.59951,0.6930789 -0.48962,0.1590345 -0.88104,0.2373833 -1.23824,0.2022337 -0.3572,-0.035143 -0.68022,-0.1838326 -1.05759,-0.4496089 -0.37737,-0.2657828 -0.80913,-0.6483883 -1.15795,-1.0937376 -0.34882,-0.4453493 -0.61462,-0.9532183 -0.90524,-1.4921873 -0.29061,-0.538962 -0.60586,-1.108936 -1.26322,-2.108276 -0.19778,-0.300684 -0.44765,-0.662813 -0.68442,-1.010086 0.0213,-0.324529 0.0547,-0.672675 0.072,-0.987867 0.25502,-4.643094 0.0582,-8.147369 -0.13702,-10.513069 -0.19524,-2.365705 -0.38904,-3.592788 -0.68241,-5.11259 -0.29338,-1.519808 -0.68634,-3.332256 -1.24356,-5.095042 -0.55721,-1.762784 -1.27885,-3.476411 -1.91476,-4.931047 -0.63589,-1.45463 -1.18626,-2.649931 -1.73669,-3.709031 -0.55043,-1.059115 -1.10063,-1.981523 -1.58953,-2.873857 -0.48889,-0.892342 -0.91672,-1.754784 -1.32834,-2.747786 -0.41161,-0.992996 -0.80755,-2.116956 -1.07419,-3.19698 -0.26664,-1.080019 -0.40365,-2.116228 -0.50177,-3.148392 -0.0981,-1.032169 -0.15672,-2.059718 -0.13788,-3.454228 0.0188,-1.394532 0.11504,-3.155632 0.3444,-4.603803 0.22933,-1.44816 0.5917,-2.58345 0.95408,-3.718491 0.83649,-1.082607 1.67296,-2.164992 2.92875,-3.687311 1.2558,-1.522278 2.9312,-3.483964 4.71903,-5.495289 1.7882,-2.010988 3.68953,-4.071155 5.18047,-5.633596 1.49095,-1.562463 2.57115,-2.62738 3.25523,-3.305422 0.68409,-0.678043 0.97185,-0.969263 1.25937,-1.260476 -0.37245,-0.05349 -0.74503,-0.106852 -1.14433,-0.154078 -0.39931,-0.04723 -0.82545,-0.0882 -1.55799,-0.09845 -0.73256,-0.01026 -1.77162,0.0101 -2.79753,0.135078 -1.0259,0.12496 -2.03874,0.354437 -3.10842,0.694508 -1.06969,0.340081 -2.19619,0.790757 -3.36688,1.362695 -1.17069,0.571932 -2.3852,1.264949 -4.0703,2.441384 -1.68513,1.176444 -3.84062,2.836001 -5.52989,4.188883 -1.68925,1.352864 -2.91233,2.399134 -4.13544,3.445153 -0.95721,0.06027 -1.91467,0.120563 -2.83759,0.259994 -0.92291,0.139432 -1.81114,0.357868 -2.78574,0.756145 -0.97461,0.398271 -2.03533,0.976096 -2.88898,1.504654 -0.85366,0.528535 -1.50029,1.008161 -2.37405,1.843645 -0.43684,0.417774 -0.93049,0.924679 -1.43361,1.482596 z m 5.043,-0.06486 a 4.396584,4.396584 0 0 1 6.19412,-0.541915 4.396584,4.396584 0 0 1 0.54191,6.194114 4.396584,4.396584 0 0 1 -6.19411,0.541915 4.396584,4.396584 0 0 1 -0.54192,-6.194114 z"
       transform="rotate(50,5.4078967,1.9683135)" /><ellipse
       style="display:inline;opacity:1;fill:#355f7f;fill-opacity:0;stroke:#355f7f;stroke-width:3.61625;stroke-dasharray:none;stroke-opacity:1"
       id="path2-4"
       cx="176.65369"
       cy="121.33241"
       rx="17.309015"
       ry="17.201773" /></g></svg>
